test/alu_tb.vcd
$date
  Thu Mar  8 17:17:18 2018
$end
$version
  GHDL v0
$end
$timescale
  1 fs
$end
$var reg 32 ! a[31:0] $end
$var reg 32 " b[31:0] $end
$var reg 5 # funct[4:0] $end
$var reg 1 $ clock $end
$var reg 32 % output[31:0] $end
$var reg 1 & finished $end
$scope module calculator $end
$var reg 1 ' clock $end
$var reg 32 ( a[31:0] $end
$var reg 32 ) b[31:0] $end
$var reg 5 * funct[4:0] $end
$var reg 32 + output[31:0] $end
$var reg 64 , wide_out[63:0] $end
$upscope $end
$enddefinitions $end
#0
b00000000000000000000000000000000 !
b00000000000000000000000000000000 "
b00000 #
0$
b00000000000000000000000000000000 %
0&
0'
b00000000000000000000000000000000 (
b00000000000000000000000000000000 )
b00000 *
b00000000000000000000000000000000 +
bUUUUUUUUUUUUUUUUUUUUUUUUUUUUUUUUUUUUUUUUUUUUUUUUUUUUUUUUUUUUUUUU ,
#500000
1$
1'
#1000000
b00000000000000000000000000001110 !
b00000000000000000000000000110010 "
0$
b00000000000000000000000001000000 %
0'
b00000000000000000000000000001110 (
b00000000000000000000000000110010 )
b00000000000000000000000001000000 +
#1500000
1$
1'
#2000000
b00001 #
0$
b11111111111111111111111111011100 %
0'
b00001 *
b11111111111111111111111111011100 +
#2500000
1$
1'
#3000000
b11111111111111111111111111001110 "
b00000 #
0$
0'
b11111111111111111111111111001110 )
b00000 *
#3500000
1$
1'
#4000000
b00001 #
0$
b00000000000000000000000001000000 %
0'
b00001 *
b00000000000000000000000001000000 +
#4500000
1$
1'
#5000000
b11111111111111111111111111111101 !
b11111111111111111111111111111011 "
b00010 #
0$
b00000000000000000000000000001111 %
0'
b11111111111111111111111111111101 (
b11111111111111111111111111111011 )
b00010 *
b00000000000000000000000000001111 +
#5500000
1$
1'
b0000000000000000000000000000000000000000000000000000000000001111 ,
#6000000
b01001 #
0$
0'
b01001 *
#6500000
1$
1'
#7000000
b01000 #
0$
b00000000000000000000000000000000 %
0'
b01000 *
b00000000000000000000000000000000 +
#7500000
1$
1'
#8000000
b00001000000000000000000000000000 !
b00000000000000000000000010000000 "
b00010 #
0$
0'
b00001000000000000000000000000000 (
b00000000000000000000000010000000 )
b00010 *
#8500000
1$
1'
b0000000000000000000000000000010000000000000000000000000000000000 ,
#9000000
b01000 #
0$
b00000000000000000000000000000100 %
0'
b01000 *
b00000000000000000000000000000100 +
#9500000
1$
1'
#10000000
b00000000000000000000000001000000 !
b00000000000000000000000000100000 "
b00011 #
0$
b00000000000000000000000000000010 %
0'
b00000000000000000000000001000000 (
b00000000000000000000000000100000 )
b00011 *
b00000000000000000000000000000010 +
#10500000
1$
1'
b0000000000000000000000000000000000000000000000000000000000000010 ,
#11000000
b01000 #
0$
b00000000000000000000000000000000 %
0'
b01000 *
b00000000000000000000000000000000 +
#11500000
1$
1'
#12000000
b00000000000000000000000000001010 "
b00011 #
0$
b00000000000000000000000000000110 %
0'
b00000000000000000000000000001010 )
b00011 *
b00000000000000000000000000000110 +
#12500000
1$
1'
b0000000000000000000000000000010000000000000000000000000000000110 ,
#13000000
b01000 #
0$
b00000000000000000000000000000100 %
0'
b01000 *
b00000000000000000000000000000100 +
#13500000
1$
1'
#14000000
0$
0'
#14500000
1$
1'
#15000000
0$
1&
0'
