test/id_tb.vcd
$date
  Thu Mar 29 21:56:17 2018
$end
$version
  GHDL v0
$end
$timescale
  1 fs
$end
$var reg 1 ! clock $end
$var reg 1 " finished $end
$var reg 32 # newpc[31:0] $end
$var reg 32 $ instr[31:0] $end
$var reg 1 % write_en $end
$var reg 32 & write_data[31:0] $end
$var reg 5 ' rd[4:0] $end
$var reg 32 ( q_instr[31:0] $end
$var reg 32 ) q_newpc[31:0] $end
$var reg 32 * q_data_a[31:0] $end
$var reg 32 + q_data_b[31:0] $end
$var reg 32 , q_imm[31:0] $end
$var reg 1 - q_memread $end
$var reg 1 . q_memwrite $end
$var reg 1 / q_alusrc $end
$var reg 1 0 q_pcsrc $end
$var reg 1 1 q_regwrite $end
$var reg 1 2 q_regdst $end
$var reg 1 3 q_memtoreg $end
$var reg 32 4 q_new_addr[31:0] $end
$scope module stage $end
$var reg 32 5 newpc[31:0] $end
$var reg 32 6 instr[31:0] $end
$var reg 1 7 clock $end
$var reg 1 8 s_write_en $end
$var reg 32 9 s_write_data[31:0] $end
$var reg 5 : s_rd[4:0] $end
$var reg 32 ; q_instr[31:0] $end
$var reg 32 < q_newpc[31:0] $end
$var reg 32 = q_data_a[31:0] $end
$var reg 32 > q_data_b[31:0] $end
$var reg 32 ? q_imm[31:0] $end
$var reg 1 @ q_memread $end
$var reg 1 A q_memwrite $end
$var reg 1 B q_alusrc $end
$var reg 1 C q_pcsrc $end
$var reg 1 D q_regwrite $end
$var reg 1 E q_regdst $end
$var reg 1 F q_memtoreg $end
$var reg 32 G q_new_addr[31:0] $end
$var reg 5 H rs[4:0] $end
$var reg 5 I rt[4:0] $end
$var reg 5 J rd[4:0] $end
$var reg 6 K op[5:0] $end
$var reg 32 L i_data_a[31:0] $end
$var reg 32 M i_data_b[31:0] $end
$scope module enc $end
$var reg 6 N opcode[5:0] $end
$var reg 6 O funct[5:0] $end
$var reg 5 P code[4:0] $end
$upscope $end
$scope module reg $end
$var reg 1 Q clock $end
$var reg 1 R reset $end
$var reg 5 S rs[4:0] $end
$var reg 5 T rt[4:0] $end
$var reg 5 U rd[4:0] $end
$var reg 1 V write_en $end
$var reg 1 W write_file $end
$var reg 32 X write_data[31:0] $end
$var reg 32 Y rs_data[31:0] $end
$var reg 32 Z rt_data[31:0] $end
$comment registers is not handled $end
$upscope $end
$upscope $end
$enddefinitions $end
#0
1!
0"
b00000000000000000000000000000000 #
b00000000000000000000000000000000 $
1%
b11011110101011011011111011101111 &
b01010 '
b00101100000000000000000000000000 (
bUUUUUUUUUUUUUUUUUUUUUUUUUUUUUUUU )
bUUUUUUUUUUUUUUUUUUUUUUUUUUUUUUUU *
bUUUUUUUUUUUUUUUUUUUUUUUUUUUUUUUU +
b00000000000000000000000000000000 ,
0-
0.
0/
00
11
02
03
b00000000000000000000000000000000 4
b00000000000000000000000000000000 5
b00000000000000000000000000000000 6
17
18
b11011110101011011011111011101111 9
b01010 :
b00101100000000000000000000000000 ;
bUUUUUUUUUUUUUUUUUUUUUUUUUUUUUUUU <
bUUUUUUUUUUUUUUUUUUUUUUUUUUUUUUUU =
bUUUUUUUUUUUUUUUUUUUUUUUUUUUUUUUU >
b00000000000000000000000000000000 ?
0@
0A
0B
0C
1D
0E
0F
b00000000000000000000000000000000 G
b00000 H
bUUUUU I
b00000 J
b000000 K
bUUUUUUUUUUUUUUUUUUUUUUUUUUUUUUUU L
bUUUUUUUUUUUUUUUUUUUUUUUUUUUUUUUU M
b000000 N
b000000 O
b01011 P
1Q
0R
b00000 S
bUUUUU T
b01010 U
1V
1W
b11011110101011011011111011101111 X
bUUUUUUUUUUUUUUUUUUUUUUUUUUUUUUUU Y
bUUUUUUUUUUUUUUUUUUUUUUUUUUUUUUUU Z
#500000
0!
1/
12
07
1B
1E
b00000000000000000000000000000000 L
b00000000000000000000000000000000 M
0Q
b00000000000000000000000000000000 Y
b00000000000000000000000000000000 Z
#1000000
1!
b10111010110111111010110011100000 &
b10101 '
b00000000000000000000000000000000 *
b00000000000000000000000000000000 +
17
b10111010110111111010110011100000 9
b10101 :
b00000000000000000000000000000000 =
b00000000000000000000000000000000 >
1B
1E
1Q
b10101 U
b10111010110111111010110011100000 X
#1500000
0!
07
1B
1E
0Q
#2000000
1!
b00000001010101011111100000100000 $
b00000001010101011111100000100000 (
b11111111111111111111100000100000 ,
b00000001010101011111100000100000 6
17
b00000001010101011111100000100000 ;
b11111111111111111111100000100000 ?
1B
1E
b01010 H
b11111 J
b100000 O
b00000 P
1Q
b01010 S
#2500000
0!
07
1B
1E
b11011110101011011011111011101111 L
0Q
b11011110101011011011111011101111 Y
#3000000
1!
b11011110101011011011111011101111 *
17
b11011110101011011011111011101111 =
1B
1E
1Q
#3500000
0!
07
1B
1E
0Q
#4000000
1!
17
1B
1E
1Q
#4500000
0!
07
1B
1E
0Q
#5000000
1!
17
1B
1E
1Q
#5500000
0!
07
1B
1E
0Q
#6000000
1!
17
1B
1E
1Q
#6500000
0!
07
1B
1E
0Q
#7000000
1!
17
1B
1E
1Q
#7500000
0!
07
1B
1E
0Q
#8000000
1!
17
1B
1E
1Q
#8500000
0!
07
1B
1E
0Q
#9000000
1!
17
1B
1E
1Q
#9500000
0!
07
1B
1E
0Q
#10000000
1!
17
1B
1E
1Q
#10500000
0!
07
1B
1E
0Q
#11000000
1!
17
1B
1E
1Q
#11500000
0!
07
1B
1E
0Q
#12000000
1!
17
1B
1E
1Q
#12500000
0!
07
1B
1E
0Q
#13000000
0!
1"
07
1B
1E
0Q
