test/id_tb.vcd
$date
  Thu Mar 29 23:10:05 2018
$end
$version
  GHDL v0
$end
$timescale
  1 fs
$end
$var reg 1 ! clock $end
$var reg 1 " finished $end
$var reg 32 # newpc[31:0] $end
$var reg 32 $ instr[31:0] $end
$var reg 1 % write_en $end
$var reg 32 & write_data[31:0] $end
$var reg 5 ' rd[4:0] $end
$var reg 32 ( q_instr[31:0] $end
$var reg 32 ) q_data_a[31:0] $end
$var reg 32 * q_data_b[31:0] $end
$var reg 32 + q_imm[31:0] $end
$var reg 1 , q_memread $end
$var reg 1 - q_memwrite $end
$var reg 1 . q_alusrc $end
$var reg 1 / q_pcsrc $end
$var reg 1 0 q_regwrite $end
$var reg 1 1 q_regdst $end
$var reg 1 2 q_memtoreg $end
$var reg 32 3 q_new_addr[31:0] $end
$scope module stage $end
$var reg 32 4 newpc[31:0] $end
$var reg 32 5 instr[31:0] $end
$var reg 1 6 clock $end
$var reg 1 7 s_write_en $end
$var reg 32 8 s_write_data[31:0] $end
$var reg 5 9 s_rd[4:0] $end
$var reg 32 : q_instr[31:0] $end
$var reg 32 ; q_newpc[31:0] $end
$var reg 32 < q_data_a[31:0] $end
$var reg 32 = q_data_b[31:0] $end
$var reg 32 > q_imm[31:0] $end
$var reg 1 ? q_memread $end
$var reg 1 @ q_memwrite $end
$var reg 1 A q_alusrc $end
$var reg 1 B q_pcsrc $end
$var reg 1 C q_regwrite $end
$var reg 1 D q_regdst $end
$var reg 1 E q_memtoreg $end
$var reg 32 F q_new_addr[31:0] $end
$var reg 5 G rs[4:0] $end
$var reg 5 H rt[4:0] $end
$var reg 5 I rd[4:0] $end
$var reg 6 J op[5:0] $end
$var reg 32 K i_data_a[31:0] $end
$var reg 32 L i_data_b[31:0] $end
$scope module enc $end
$var reg 6 M opcode[5:0] $end
$var reg 6 N funct[5:0] $end
$var reg 5 O code[4:0] $end
$upscope $end
$scope module reg $end
$var reg 1 P clock $end
$var reg 1 Q reset $end
$var reg 5 R rs[4:0] $end
$var reg 5 S rt[4:0] $end
$var reg 5 T rd[4:0] $end
$var reg 1 U write_en $end
$var reg 1 V write_file $end
$var reg 32 W write_data[31:0] $end
$var reg 32 X rs_data[31:0] $end
$var reg 32 Y rt_data[31:0] $end
$comment registers is not handled $end
$upscope $end
$upscope $end
$enddefinitions $end
#0
1!
0"
b00000000000000000000000000000000 #
b00000000000000000000000000000000 $
1%
b11011110101011011011111011101111 &
b01010 '
b00101100000000000000000000000000 (
bUUUUUUUUUUUUUUUUUUUUUUUUUUUUUUUU )
bUUUUUUUUUUUUUUUUUUUUUUUUUUUUUUUU *
b00000000000000000000000000000000 +
0,
0-
1.
0/
10
11
02
b00000000000000000000000000000000 3
b00000000000000000000000000000000 4
b00000000000000000000000000000000 5
16
17
b11011110101011011011111011101111 8
b01010 9
b00101100000000000000000000000000 :
bUUUUUUUUUUUUUUUUUUUUUUUUUUUUUUUU ;
bUUUUUUUUUUUUUUUUUUUUUUUUUUUUUUUU <
bUUUUUUUUUUUUUUUUUUUUUUUUUUUUUUUU =
b00000000000000000000000000000000 >
0?
0@
1A
0B
1C
1D
0E
b00000000000000000000000000000000 F
b00000 G
b00000 H
b00000 I
b000000 J
bUUUUUUUUUUUUUUUUUUUUUUUUUUUUUUUU K
bUUUUUUUUUUUUUUUUUUUUUUUUUUUUUUUU L
b000000 M
b000000 N
b01011 O
1P
0Q
b00000 R
b00000 S
b01010 T
1U
1V
b11011110101011011011111011101111 W
bUUUUUUUUUUUUUUUUUUUUUUUUUUUUUUUU X
bUUUUUUUUUUUUUUUUUUUUUUUUUUUUUUUU Y
#500000
0!
b00000000000000000000000000000000 )
b00000000000000000000000000000000 *
06
b00000000000000000000000000000000 <
b00000000000000000000000000000000 =
1A
1D
b00000000000000000000000000000000 K
b00000000000000000000000000000000 L
0P
b00000000000000000000000000000000 X
b00000000000000000000000000000000 Y
#1000000
1!
b10111010110111111010110011100000 &
b10101 '
16
b10111010110111111010110011100000 8
b10101 9
1A
1D
1P
b10101 T
b10111010110111111010110011100000 W
#1500000
0!
06
1A
1D
0P
#2000000
1!
b11111111111011101101110111001100 &
b10111 '
16
b11111111111011101101110111001100 8
b10111 9
1A
1D
1P
b10111 T
b11111111111011101101110111001100 W
#2500000
0!
06
1A
1D
0P
#3000000
1!
b00000001010101011111100000100000 $
b00000001010101011111100000100000 (
b11111111111111111111100000100000 +
b00000001010101011111100000100000 5
16
b00000001010101011111100000100000 :
b11111111111111111111100000100000 >
1A
1D
b01010 G
b10101 H
b11111 I
b100000 N
b00000 O
1P
b01010 R
b10101 S
#3500000
0!
b11011110101011011011111011101111 )
b10111010110111111010110011100000 *
06
b11011110101011011011111011101111 <
b10111010110111111010110011100000 =
1A
1D
b11011110101011011011111011101111 K
b10111010110111111010110011100000 L
0P
b11011110101011011011111011101111 X
b10111010110111111010110011100000 Y
#4000000
1!
16
1A
1D
1P
#4500000
0!
06
1A
1D
0P
#5000000
1!
16
1A
1D
1P
#5500000
0!
06
1A
1D
0P
#6000000
1!
16
1A
1D
1P
#6500000
0!
06
1A
1D
0P
#7000000
1!
16
1A
1D
1P
#7500000
0!
06
1A
1D
0P
#8000000
1!
16
1A
1D
1P
#8500000
0!
06
1A
1D
0P
#9000000
1!
16
1A
1D
1P
#9500000
0!
06
1A
1D
0P
#10000000
1!
16
1A
1D
1P
#10500000
0!
06
1A
1D
0P
#11000000
1!
16
1A
1D
1P
#11500000
0!
06
1A
1D
0P
#12000000
1!
16
1A
1D
1P
#12500000
0!
06
1A
1D
0P
#13000000
1!
16
1A
1D
1P
#13500000
0!
06
1A
1D
0P
#14000000
0!
1"
06
1A
1D
0P
